303 351 144
1282 1183 177
145 1219 182
827 1470 182
112 1050 179
1791 731 182
769 1418 182
1663 642 182
1509 84 182
1624 1780 180
1799 854 182
822 193 171
364 97 144
1638 1474 167
1492 1569 154
1094 266 179
1221 364 182
909 798 179
888 521 179
873 1731 182
1896 270 182
1659 1922 180
1605 331 182
772 504 171
44 1030 179
1419 289 182
1714 11 182
418 216 144
1702 1260 180
1158 252 179
584 938 179
1758 15 182
127 278 128
869 931 179
1989 1822 175
1720 753 182
1982 629 182
1055 1000 169
1083 1451 182
630 1067 179
1044 1737 182
550 1295 182
676 1878 182
969 487 179
707 332 171
1316 1193 177
237 1423 182
1602 828 182
20 1436 182
970 1875 182
515 1171 182
1946 853 182
1160 1182 182
525 1267 182
891 1957 182
1400 836 182
1474 968 182
1029 336 179
312 119 128
1913 1081 182
1921 743 182
553 1712 182
1617 1936 180
1604 1011 182
1358 298 182
1358 941 182
1361 1738 180
1492 880 182
1215 1538 177
1252 1959 180
472 1061 179
572 1206 182
1719 726 182
1366 1657 172
944 1482 182
1757 1228 180
841 703 171
1522 1002 182
467 1185 182
978 727 179
1352 40 182
1350 1976 180
563 199 144
605 544 137
1960 1400 180
251 172 128
1292 908 182
248 238 110
71 1109 179
1540 428 182
728 377 171
1787 1593 180
1821 1226 180
94 1087 179
60 1851 182
1755 352 182
1674 373 182
1070 346 179
1171 581 182
1481 1831 180
1068 1749 182
1109 974 169
66 1115 179
1466 696 182
501 1418 182
465 1090 179
1515 69 182
1518 1937 180
1608 963 182
747 830 153
281 1118 179
252 926 179
513 434 142
746 1352 182
1761 1127 182
1055 990 169
805 1401 182
1168 97 182
1960 642 182
1901 1508 180
492 419 142
143 349 144
1434 1786 180
108 1882 182
988 92 179
1104 1279 182
1460 302 182
1555 1519 154
299 1620 182
994 240 179
718 133 171
1476 578 182
481 519 142
229 125 125
507 997 179
1495 1480 141
1103 119 179
1377 996 182
849 1518 182
1447 1549 172
291 1588 182
1300 409 182
1715 291 182
1017 390 179
432 60 144
422 1377 182
230 1477 182
1046 72 179
531 1201 182
266 676 145
1600 451 182
713 797 153
377 1063 179
1922 213 182
202 976 179
1178 865 182
153 1026 179
617 605 132
1053 509 179
696 1974 182
885 1382 182
969 1745 182
709 1196 182
646 1867 182
124 1155 179
1903 811 182
1907 263 182
473 1519 182
1924 814 182
1571 403 182
516 1472 182
774 1859 182
313 1429 182
653 1688 182
1397 1569 172
51 162 122
1866 568 182
1349 112 182
198 359 144
1388 1925 180
1986 661 182
892 879 148
63 203 125
681 1083 179
188 169 125
1394 457 182
1619 954 182
469 1688 182
1700 1780 180
208 1708 182
530 1687 182
608 324 144
1155 1948 182
1605 707 182
743 240 171
638 838 171
777 783 122
1842 1598 180
17 1759 182
1073 273 179
